{
  "project_info": {
    "project_number": "315673012339",
    "project_id": "invest-systems",
    "storage_bucket": "invest-systems.appspot.com"
  },
  "client": [
    {
      "client_info": {
        "mobilesdk_app_id": "1:315673012339:android:4b020db0fe01af0ab3e206",
        "android_client_info": {
          "package_name": "com.kurnot"
        }
      },
      "oauth_client": [
        {
          "client_id": "315673012339-9e9lgtehge0ugis5ukr4l5k6q525s58b.apps.googleusercontent.com",
          "client_type": 3
        }
      ],
      "api_key": [
        {
          "current_key": "AIzaSyAdDvlOimJciLKdYwUfE1gdLfHi2DbIrNc"
        }
      ],
      "services": {
        "appinvite_service": {
          "other_platform_oauth_client": [
            {
              "client_id": "315673012339-9e9lgtehge0ugis5ukr4l5k6q525s58b.apps.googleusercontent.com",
              "client_type": 3
            }
          ]
        }
      }
    }
  ],
  "configuration_version": "1"
}